<svg xmlns="http://www.w3.org/2000/svg" width="6" height="11" viewBox="0 0 6 11">
    <g fill="none" fill-rule="evenodd">
        <path fill="#FFF" d="M-144-377h375v667h-375z"/>
        <path fill="#000" d="M5 10V1H1v9h4zm0 1H0V0h6v11H5zM1 2h2v1H1V2zm0 4h2v1H1V6zm0-2h2v1H1V4zm0 4h2v1H1V8z"/>
    </g>
</svg>
